{
    "employees": [
        {
            "id": 1,
            "firstName": "John",
            "lastName": "Doe",
            "position": "Software Developer",
            "salary": "20000",
            "mainAddress1": "abc",
            "mainAddress2": "abc",
            "mainCity": "noida",
            "mainState": "U.P",
            "mainCountry": "India",
            "officeAddress1": "abc",
            "officeAddress2": "abc",
            "officeCity": "noida",
            "officeState": "U.P",
            "officeCountry": "India"
        },
        {
            "id": 2,
            "firstName": "John",
            "lastName": "Doe",
            "position": "Software Developer",
            "salary": "20000",
            "mainAddress1": "abc",
            "mainAddress2": "abc",
            "mainCity": "noida",
            "mainState": "U.P",
            "mainCountry": "India",
            "officeAddress1": "abc",
            "officeAddress2": "abc",
            "officeCity": "noida",
            "officeState": "U.P",
            "officeCountry": "India"
        },
        {
            "id": 3,
            "firstName": "John",
            "lastName": "Doe",
            "position": "Software Developer",
            "salary": "20000",
            "mainAddress1": "abc",
            "mainAddress2": "abc",
            "mainCity": "noida",
            "mainState": "U.P",
            "mainCountry": "India",
            "officeAddress1": "abc",
            "officeAddress2": "abc",
            "officeCity": "noida",
            "officeState": "U.P",
            "officeCountry": "India"
        }
    ]
}